<?xml version="1.0" encoding="UTF-8"?>
<CustomTab xmlns="http://soap.sforce.com/2006/04/metadata">
    <customObject>true</customObject>
    <description>For storing the error messages received in the processing</description>
    <motif>Custom57: Building Block</motif>
</CustomTab>
